{
	"items": [{
		"mgid": "mgid:arc:competitiveevent:spike.com:01e553a9-53ca-47a8-87ce-8e651b4ece95",
		"contestants": [{
			"person": {
				"id": "64f82f1a-0363-11e2-9c4c-a4badb23230a",
				"name": "Rudy Bears",
				"images": null,
				"placeOfResidence": "Raytown, MO, USA",
				"characteristics": {
					"common": {
						"weight_class": "Welterweight",
						"weight_actual": "180",
						"height_feet": "5",
						"height_inches": "11"
					},
					"mma": {
						"losses": "15",
						"wins": "16",
						"draws": "0",
						"wins_submission": "8",
						"wins_tko": "5",
						"wins_decision": "3",
						"loss_submission": "8",
						"loss_tko": "5",
						"website_status": "Yes",
						"loss_decision": "2",
						"wins_DQ": "0",
						"loss_DQ": "0",
						"no_contest": "0"
					},
					"kickboxing": null
				}
			},
			"result": {
				"position": "red",
				"competitiveEventResult": "Loss",
				"resultMethod": "Decision",
				"resultRound": "3",
				"resultRoundTime": "5:00"
			}
		},
		{
			"person": {
				"id": "1fe47dea-4839-4cf7-ae24-6c8742db830e",
				"name": "AJ Matthews",
				"images": [{
					"image": null
				}],
				"placeOfResidence": "Carlsbad, CA, USA",
				"characteristics": {
					"common": {
						"weight_class": "Middleweight",
						"weight_actual": "184",
						"height_feet": "6",
						"height_inches": "0"
					},
					"mma": {
						"losses": "6",
						"wins": "8",
						"draws": null,
						"wins_submission": "0",
						"wins_tko": "6",
						"wins_decision": "2",
						"loss_submission": "0",
						"loss_tko": "3",
						"website_status": "Yes",
						"loss_decision": "3",
						"wins_DQ": "0",
						"loss_DQ": "0",
						"no_contest": "0"
					},
					"kickboxing": null
				}
			},
			"result": {
				"position": "blue",
				"competitiveEventResult": "Win",
				"resultMethod": "Decision",
				"resultRound": "3",
				"resultRoundTime": "5:00"
			}
		}],
		"title": "Catchweight Feature Fight",
		"lastModified": {
			"timestamp": "1436299978610"
		},
		"startDateTime": {
			"timestamp": "1318118400000"
		}
	},
	{
		"mgid": "mgid:arc:competitiveevent:spike.com:650bf496-0363-11e2-9c4c-a4badb23230a",
		"contestants": [{
			"person": {
				"id": "64f82f1a-0363-11e2-9c4c-a4badb23230a",
				"name": "Rudy Bears",
				"images": null,
				"placeOfResidence": "Raytown, MO, USA",
				"characteristics": {
					"common": {
						"weight_class": "Welterweight",
						"weight_actual": "180",
						"height_feet": "5",
						"height_inches": "11"
					},
					"mma": {
						"losses": "15",
						"wins": "16",
						"draws": "0",
						"wins_submission": "8",
						"wins_tko": "5",
						"wins_decision": "3",
						"loss_submission": "8",
						"loss_tko": "5",
						"website_status": "Yes",
						"loss_decision": "2",
						"wins_DQ": "0",
						"loss_DQ": "0",
						"no_contest": "0"
					},
					"kickboxing": null
				}
			},
			"result": {
				"position": "red",
				"competitiveEventResult": "Loss",
				"resultMethod": "Decision",
				"resultRound": "3",
				"resultRoundTime": "5:00"
			}
		},
		{
			"person": {
				"id": "1fe47dea-4839-4cf7-ae24-6c8742db830e",
				"name": "AJ Matthews",
				"images": [{
					"image": null
				}],
				"placeOfResidence": "Carlsbad, CA, USA",
				"characteristics": {
					"common": {
						"weight_class": "Middleweight",
						"weight_actual": "184",
						"height_feet": "6",
						"height_inches": "0"
					},
					"mma": {
						"losses": "6",
						"wins": "8",
						"draws": null,
						"wins_submission": "0",
						"wins_tko": "6",
						"wins_decision": "2",
						"loss_submission": "0",
						"loss_tko": "3",
						"website_status": "Yes",
						"loss_decision": "3",
						"wins_DQ": "0",
						"loss_DQ": "0",
						"no_contest": "0"
					},
					"kickboxing": null
				}
			},
			"result": {
				"position": "blue",
				"competitiveEventResult": "Win",
				"resultMethod": "Decision",
				"resultRound": "3",
				"resultRoundTime": "5:00"
			}
		}],
		"title": "Local Feature Fight",
		"lastModified": {
			"timestamp": "1435353638053"
		},
		"startDateTime": {
			"timestamp": "1318118400000"
		}
	},
	{
		"mgid": "mgid:arc:competitiveevent:spike.com:3a67a136-b860-4606-8d5a-6896b7210ec9",
		"contestants": [{
			"person": {
				"id": "ae3c2102-b5aa-4b3d-b8e8-6bff0bc75f73",
				"name": "Hisaki Kato",
				"images": [{
					"image": null
				},
				{
					"image": null
				},
				{
					"image": null
				}],
				"placeOfResidence": "Nagoya, Aichi, Japan",
				"characteristics": {
					"common": {
						"weight_class": "Middleweight",
						"weight_actual": "185",
						"height_feet": "6",
						"height_inches": "0"
					},
					"mma": {
						"losses": "2",
						"wins": "7",
						"draws": "0",
						"wins_submission": "0",
						"wins_tko": "6",
						"wins_decision": "1",
						"loss_submission": "0",
						"loss_tko": "2",
						"website_status": "Yes",
						"loss_decision": "0",
						"wins_DQ": "0",
						"loss_DQ": "0",
						"no_contest": "0"
					},
					"kickboxing": null
				}
			},
			"result": {
				"position": "red",
				"competitiveEventResult": "Win",
				"resultMethod": "TKO",
				"resultRound": "1",
				"resultRoundTime": "4:50"
			}
		},
		{
			"person": {
				"id": "1fe47dea-4839-4cf7-ae24-6c8742db830e",
				"name": "AJ Matthews",
				"images": [{
					"image": null
				}],
				"placeOfResidence": "Carlsbad, CA, USA",
				"characteristics": {
					"common": {
						"weight_class": "Middleweight",
						"weight_actual": "184",
						"height_feet": "6",
						"height_inches": "0"
					},
					"mma": {
						"losses": "6",
						"wins": "8",
						"draws": null,
						"wins_submission": "0",
						"wins_tko": "6",
						"wins_decision": "2",
						"loss_submission": "0",
						"loss_tko": "3",
						"website_status": "Yes",
						"loss_decision": "3",
						"wins_DQ": "0",
						"loss_DQ": "0",
						"no_contest": "0"
					},
					"kickboxing": null
				}
			},
			"result": {
				"position": "blue",
				"competitiveEventResult": "Loss",
				"resultMethod": "TKO",
				"resultRound": "1",
				"resultRoundTime": "4:50"
			}
		}],
		"title": "Middleweight Feature Fight",
		"lastModified": {
			"timestamp": "1477102390464"
		},
		"startDateTime": {
			"timestamp": "1477098000000"
		}
	},
	{
		"mgid": "mgid:arc:competitiveevent:spike.com:94aa300d-0007-4ff7-9e30-36199bcb8023",
		"contestants": [{
			"person": {
				"id": "1fe47dea-4839-4cf7-ae24-6c8742db830e",
				"name": "AJ Matthews",
				"images": [{
					"image": null
				}],
				"placeOfResidence": "Carlsbad, CA, USA",
				"characteristics": {
					"common": {
						"weight_class": "Middleweight",
						"weight_actual": "184",
						"height_feet": "6",
						"height_inches": "0"
					},
					"mma": {
						"losses": "6",
						"wins": "8",
						"draws": null,
						"wins_submission": "0",
						"wins_tko": "6",
						"wins_decision": "2",
						"loss_submission": "0",
						"loss_tko": "3",
						"website_status": "Yes",
						"loss_decision": "3",
						"wins_DQ": "0",
						"loss_DQ": "0",
						"no_contest": "0"
					},
					"kickboxing": null
				}
			},
			"result": {
				"position": "red",
				"competitiveEventResult": "Loss",
				"resultMethod": "Decision",
				"resultRound": " ",
				"resultRoundTime": " "
			}
		},
		{
			"person": {
				"id": "1dc27c5f-5dee-4189-aead-8d96aa797ee3",
				"name": "Ben Reiter",
				"images": null,
				"placeOfResidence": "Coram, NY, USA",
				"characteristics": {
					"common": {
						"weight_class": "Middleweight",
						"weight_actual": "185",
						"height_feet": "6",
						"height_inches": "3"
					},
					"mma": {
						"losses": "2",
						"wins": "17",
						"draws": "1",
						"wins_submission": "2",
						"wins_tko": "7",
						"wins_decision": "8",
						"loss_submission": "1",
						"loss_tko": "0",
						"website_status": "Yes",
						"loss_decision": "1",
						"wins_DQ": "0",
						"loss_DQ": "0",
						"no_contest": "0"
					},
					"kickboxing": null
				}
			},
			"result": {
				"position": "blue",
				"competitiveEventResult": "Win",
				"resultMethod": "Decision",
				"resultRound": " ",
				"resultRoundTime": " "
			}
		}],
		"title": "Middleweight Prelim Fight",
		"lastModified": {
			"timestamp": "1466259909691"
		},
		"startDateTime": {
			"timestamp": "1466204400000"
		}
	},
	{
		"mgid": "mgid:arc:competitiveevent:spike.com:650c7be6-0363-11e2-9c4c-a4badb23230a",
		"contestants": [{
			"person": {
				"id": "1fe47dea-4839-4cf7-ae24-6c8742db830e",
				"name": "AJ Matthews",
				"images": [{
					"image": null
				}],
				"placeOfResidence": "Carlsbad, CA, USA",
				"characteristics": {
					"common": {
						"weight_class": "Middleweight",
						"weight_actual": "184",
						"height_feet": "6",
						"height_inches": "0"
					},
					"mma": {
						"losses": "6",
						"wins": "8",
						"draws": null,
						"wins_submission": "0",
						"wins_tko": "6",
						"wins_decision": "2",
						"loss_submission": "0",
						"loss_tko": "3",
						"website_status": "Yes",
						"loss_decision": "3",
						"wins_DQ": "0",
						"loss_DQ": "0",
						"no_contest": "0"
					},
					"kickboxing": null
				}
			},
			"result": {
				"position": "red",
				"competitiveEventResult": "Win",
				"resultMethod": "TKO",
				"resultRound": "2",
				"resultRoundTime": "3:34"
			}
		},
		{
			"person": {
				"id": "64f99710-0363-11e2-9c4c-a4badb23230a",
				"name": "Charlie Rader",
				"images": null,
				"placeOfResidence": "USA",
				"characteristics": {
					"common": {
						"weight_class": "Welterweight",
						"weight_actual": "170",
						"height_feet": null,
						"height_inches": null
					},
					"mma": {
						"losses": "3",
						"wins": "13",
						"draws": "0",
						"wins_submission": "3",
						"wins_tko": "8",
						"wins_decision": "1",
						"loss_submission": null,
						"loss_tko": null,
						"website_status": "No",
						"loss_decision": null,
						"wins_DQ": null,
						"loss_DQ": null,
						"no_contest": null
					},
					"kickboxing": null
				}
			},
			"result": {
				"position": "blue",
				"competitiveEventResult": "Loss",
				"resultMethod": "TKO",
				"resultRound": "2",
				"resultRoundTime": "3:34"
			}
		}],
		"title": "Feature Fight",
		"lastModified": {
			"timestamp": "1435353636725"
		},
		"startDateTime": {
			"timestamp": "1337990400000"
		}
	},
	{
		"mgid": "mgid:arc:competitiveevent:spike.com:7817b91a-27cd-11e2-bdb1-a4badb23230a",
		"contestants": [{
			"person": {
				"id": "64fbd0a2-0363-11e2-9c4c-a4badb23230a",
				"name": "Domonic O'Grady",
				"images": [{
					"image": null
				}],
				"placeOfResidence": "Detroit, MI, USA",
				"characteristics": {
					"common": {
						"weight_class": null,
						"weight_actual": "171",
						"height_feet": "6",
						"height_inches": "0"
					},
					"mma": {
						"losses": "5",
						"wins": "15",
						"draws": null,
						"wins_submission": null,
						"wins_tko": null,
						"wins_decision": null,
						"loss_submission": null,
						"loss_tko": null,
						"website_status": null,
						"loss_decision": null,
						"wins_DQ": null,
						"loss_DQ": null,
						"no_contest": null
					},
					"kickboxing": null
				}
			},
			"result": {
				"position": "red",
				"competitiveEventResult": "Win",
				"resultMethod": "Decision",
				"resultRound": "3",
				"resultRoundTime": "5:00"
			}
		},
		{
			"person": {
				"id": "1fe47dea-4839-4cf7-ae24-6c8742db830e",
				"name": "AJ Matthews",
				"images": [{
					"image": null
				}],
				"placeOfResidence": "Carlsbad, CA, USA",
				"characteristics": {
					"common": {
						"weight_class": "Middleweight",
						"weight_actual": "184",
						"height_feet": "6",
						"height_inches": "0"
					},
					"mma": {
						"losses": "6",
						"wins": "8",
						"draws": null,
						"wins_submission": "0",
						"wins_tko": "6",
						"wins_decision": "2",
						"loss_submission": "0",
						"loss_tko": "3",
						"website_status": "Yes",
						"loss_decision": "3",
						"wins_DQ": "0",
						"loss_DQ": "0",
						"no_contest": "0"
					},
					"kickboxing": null
				}
			},
			"result": {
				"position": "blue",
				"competitiveEventResult": "Loss",
				"resultMethod": "Decision",
				"resultRound": "3",
				"resultRoundTime": "5:00"
			}
		}],
		"title": "Feature Fight",
		"lastModified": {
			"timestamp": "1435353639648"
		},
		"startDateTime": {
			"timestamp": "1350086400000"
		}
	},
	{
		"mgid": "mgid:arc:competitiveevent:spike.com:757d5b29-6bda-4e5b-953c-c0cd557678db",
		"contestants": [{
			"person": {
				"id": "64f82f1a-0363-11e2-9c4c-a4badb23230a",
				"name": "Rudy Bears",
				"images": null,
				"placeOfResidence": "Raytown, MO, USA",
				"characteristics": {
					"common": {
						"weight_class": "Welterweight",
						"weight_actual": "180",
						"height_feet": "5",
						"height_inches": "11"
					},
					"mma": {
						"losses": "15",
						"wins": "16",
						"draws": "0",
						"wins_submission": "8",
						"wins_tko": "5",
						"wins_decision": "3",
						"loss_submission": "8",
						"loss_tko": "5",
						"website_status": "Yes",
						"loss_decision": "2",
						"wins_DQ": "0",
						"loss_DQ": "0",
						"no_contest": "0"
					},
					"kickboxing": null
				}
			},
			"result": {
				"position": "red",
				"competitiveEventResult": "Loss",
				"resultMethod": "Decision",
				"resultRound": "3",
				"resultRoundTime": "5:00"
			}
		},
		{
			"person": {
				"id": "1fe47dea-4839-4cf7-ae24-6c8742db830e",
				"name": "AJ Matthews",
				"images": [{
					"image": null
				}],
				"placeOfResidence": "Carlsbad, CA, USA",
				"characteristics": {
					"common": {
						"weight_class": "Middleweight",
						"weight_actual": "184",
						"height_feet": "6",
						"height_inches": "0"
					},
					"mma": {
						"losses": "6",
						"wins": "8",
						"draws": null,
						"wins_submission": "0",
						"wins_tko": "6",
						"wins_decision": "2",
						"loss_submission": "0",
						"loss_tko": "3",
						"website_status": "Yes",
						"loss_decision": "3",
						"wins_DQ": "0",
						"loss_DQ": "0",
						"no_contest": "0"
					},
					"kickboxing": null
				}
			},
			"result": {
				"position": "blue",
				"competitiveEventResult": "Win",
				"resultMethod": "Decision",
				"resultRound": "3",
				"resultRoundTime": "5:00"
			}
		}],
		"title": "Feature Fight",
		"lastModified": {
			"timestamp": "1444250863314"
		},
		"startDateTime": {
			"timestamp": "1318118400000"
		}
	},
	{
		"mgid": "mgid:arc:competitiveevent:spike.com:659a6f25-48fb-4891-be96-80691310b50e",
		"contestants": [{
			"person": {
				"id": "83201219-69ed-451a-acf3-ddede9a7a217",
				"name": "Kyle Bolt",
				"images": null,
				"placeOfResidence": "New Mexico, USA",
				"characteristics": {
					"common": {
						"weight_class": "Welterweight",
						"weight_actual": "185",
						"height_feet": "6",
						"height_inches": "2"
					},
					"mma": {
						"losses": "4",
						"wins": "8",
						"draws": null,
						"wins_submission": null,
						"wins_tko": null,
						"wins_decision": null,
						"loss_submission": null,
						"loss_tko": null,
						"website_status": "No",
						"loss_decision": null,
						"wins_DQ": null,
						"loss_DQ": null,
						"no_contest": null
					},
					"kickboxing": null
				}
			},
			"result": {
				"position": "red",
				"competitiveEventResult": "Loss",
				"resultMethod": "TKO",
				"resultRound": "1",
				"resultRoundTime": "1:39"
			}
		},
		{
			"person": {
				"id": "1fe47dea-4839-4cf7-ae24-6c8742db830e",
				"name": "AJ Matthews",
				"images": [{
					"image": null
				}],
				"placeOfResidence": "Carlsbad, CA, USA",
				"characteristics": {
					"common": {
						"weight_class": "Middleweight",
						"weight_actual": "184",
						"height_feet": "6",
						"height_inches": "0"
					},
					"mma": {
						"losses": "6",
						"wins": "8",
						"draws": null,
						"wins_submission": "0",
						"wins_tko": "6",
						"wins_decision": "2",
						"loss_submission": "0",
						"loss_tko": "3",
						"website_status": "Yes",
						"loss_decision": "3",
						"wins_DQ": "0",
						"loss_DQ": "0",
						"no_contest": "0"
					},
					"kickboxing": null
				}
			},
			"result": {
				"position": "blue",
				"competitiveEventResult": "Win",
				"resultMethod": "TKO",
				"resultRound": "1",
				"resultRoundTime": "1:39"
			}
		}],
		"title": "Middleweight Feature Fight",
		"lastModified": {
			"timestamp": "1435353635309"
		},
		"startDateTime": {
			"timestamp": "1416099600000"
		}
	},
	{
		"mgid": "mgid:arc:competitiveevent:spike.com:655bc7f6-6c6d-4980-b25a-72d4c0ad3640",
		"contestants": [{
			"person": {
				"id": "1fe47dea-4839-4cf7-ae24-6c8742db830e",
				"name": "AJ Matthews",
				"images": [{
					"image": null
				}],
				"placeOfResidence": "Carlsbad, CA, USA",
				"characteristics": {
					"common": {
						"weight_class": "Middleweight",
						"weight_actual": "184",
						"height_feet": "6",
						"height_inches": "0"
					},
					"mma": {
						"losses": "6",
						"wins": "8",
						"draws": null,
						"wins_submission": "0",
						"wins_tko": "6",
						"wins_decision": "2",
						"loss_submission": "0",
						"loss_tko": "3",
						"website_status": "Yes",
						"loss_decision": "3",
						"wins_DQ": "0",
						"loss_DQ": "0",
						"no_contest": "0"
					},
					"kickboxing": null
				}
			},
			"result": {
				"position": "red",
				"competitiveEventResult": "Loss",
				"resultMethod": "Decision",
				"resultRound": "3",
				"resultRoundTime": "5:00"
			}
		},
		{
			"person": {
				"id": "b91725d0-3f2a-11e2-bdb1-a4badb23230a",
				"name": "Belal Muhammad",
				"images": null,
				"placeOfResidence": "Chicago, IL, USA",
				"characteristics": {
					"common": {
						"weight_class": "Welterweight",
						"weight_actual": "170",
						"height_feet": "5",
						"height_inches": "10"
					},
					"mma": {
						"losses": "0",
						"wins": null,
						"draws": "0",
						"wins_submission": null,
						"wins_tko": null,
						"wins_decision": null,
						"loss_submission": null,
						"loss_tko": null,
						"website_status": "No",
						"loss_decision": null,
						"wins_DQ": null,
						"loss_DQ": null,
						"no_contest": null
					},
					"kickboxing": null
				}
			},
			"result": {
				"position": "blue",
				"competitiveEventResult": "Win",
				"resultMethod": "Decision",
				"resultRound": "3",
				"resultRoundTime": "5:00"
			}
		}],
		"title": "Welterweight Feature Fight",
		"lastModified": {
			"timestamp": "1435699462217"
		},
		"startDateTime": {
			"timestamp": "1394845200000"
		}
	},
	{
		"mgid": "mgid:arc:competitiveevent:spike.com:3a023ecc-eb6e-4895-823f-d1f1909ba711",
		"contestants": [{
			"person": {
				"id": "1fe47dea-4839-4cf7-ae24-6c8742db830e",
				"name": "AJ Matthews",
				"images": [{
					"image": null
				}],
				"placeOfResidence": "Carlsbad, CA, USA",
				"characteristics": {
					"common": {
						"weight_class": "Middleweight",
						"weight_actual": "184",
						"height_feet": "6",
						"height_inches": "0"
					},
					"mma": {
						"losses": "6",
						"wins": "8",
						"draws": null,
						"wins_submission": "0",
						"wins_tko": "6",
						"wins_decision": "2",
						"loss_submission": "0",
						"loss_tko": "3",
						"website_status": "Yes",
						"loss_decision": "3",
						"wins_DQ": "0",
						"loss_DQ": "0",
						"no_contest": "0"
					},
					"kickboxing": null
				}
			},
			"result": {
				"position": "red",
				"competitiveEventResult": "Win",
				"resultMethod": "TKO",
				"resultRound": "1",
				"resultRoundTime": "5:00"
			}
		},
		{
			"person": {
				"id": "85d6aafb-b805-4279-8ed1-f420947089da",
				"name": "Emiliano Sordi",
				"images": null,
				"placeOfResidence": "Rio Cuarto, Cordoba, Argentina",
				"characteristics": {
					"common": {
						"weight_class": "Middleweight",
						"weight_actual": "185",
						"height_feet": "6",
						"height_inches": "2"
					},
					"mma": {
						"losses": "6",
						"wins": "13",
						"draws": "0",
						"wins_submission": "5",
						"wins_tko": "8",
						"wins_decision": "0",
						"loss_submission": "3",
						"loss_tko": "2",
						"website_status": "Yes",
						"loss_decision": "1",
						"wins_DQ": "0",
						"loss_DQ": "0",
						"no_contest": "0"
					},
					"kickboxing": null
				}
			},
			"result": {
				"position": "blue",
				"competitiveEventResult": "Loss",
				"resultMethod": "TKO",
				"resultRound": "1",
				"resultRoundTime": "5:00"
			}
		}],
		"title": "Prelim Fight",
		"lastModified": {
			"timestamp": "1442856735084"
		},
		"startDateTime": {
			"timestamp": "1440786600000"
		}
	}]
}